{
    "Ledger": {
        "active": true,
        "TEZOS_ADDRESS": "xxxxxxxxxxxxxxxxxxxxxxxxxxxxxxxxxxxx"
    },
    "Coinmate": {
        "CLIENT_ID": 21469,
        "PUBLIC_KEY": "xxxxxxxxxxxxxxxxxxxxxxxxxxxxxxxxxxxxxx",
        "PRIVATE_KEY": "xxxxxxxxxxxxxxxxxxxxxxxxxxxxxxxxxxxxxx"
    },
    "Bitfinex": {
        "KEY": "xxxxxxxxxxxxxxxxxxxxxxxxxxxxxxxxxxxxxx",
        "SECRET": "xxxxxxxxxxxxxxxxxxxxxxxxxxxxxxxxxxxxxx"
    },
    "Bittrex": {
        "KEY": "xxxxxxxxxxxxxxxxxxxxxxxxxxxxxxxxxxxxxx",
        "SECRET": "xxxxxxxxxxxxxxxxxxxxxxxxxxxxxxxxxxxxxx"
    },
    "Binance": {
        "KEY": "xxxxxxxxxxxxxxxxxxxxxxxxxxxxxxxxxxxxxx ",
        "SECRET": "xxxxxxxxxxxxxxxxxxxxxxxxxxxxxxxxxxxxxx"
    },
    "Coinbase": {
        "KEY": "xxxxxxxxxxxxxxxxxxxxxxxxxxxxxxxxxxxxxx",
        "SECRET": "xxxxxxxxxxxxxxxxxxxxxxxxxxxxxxxxxxxxxx"
    },
    "CB Pro": {
        "KEY": "xxxxxxxxxxxxxxxxxxxxxxxxxxxxxxxxxxxxxx",
        "SECRET": "xxxxxxxxxxxxxxxxxxxxxxxxxxxxxxxxxxxxxx",
        "PASSPHRASE": "xxxxxxxxxxxxxxxxxxxxxxxxxxxxxxxxxxxxxx"
    },
    "Kucoin": {
        "KEY": "xxxxxxxxxxxxxxxxxxxxxxxxxxxxxxxxxxxxxx ",
        "SECRET": "xxxxxxxxxxxxxxxxxxxxxxxxxxxxxxxxxxxxxx",
        "PASSPHRASE": "xxxxxxxxxxxxxxxxxxxxxxxxxxxxxxxxxxxxxx"
    },
    "Neon": {
        "ADDRESS": "xxxxxxxxxxxxxxxxxxxxxxxxxxxxxxxxxxxxxx"
    },
    "Other": {
        "active": true,
        "cryptoDotComActive": true
    },
    "Trezor": {
        "active": false
    },
    "Fiat": {
        "active": false
    },
    "CryptoCompare": {
        "KEY": "xxxxxxxxxxxxxxxxxxxxxxxxxxxxxxxxxxxxxx"
    },
    "notifications": {
        "user": "something@gmail.com",
        "target": "mail@mail.prt",
        "password": "xxxxxxxxxxxxxxxxxxxxxxxxxxxxxxx"
    }
}